1 10 20
100 200 125
201 210 89
900 1000 174
42 54 113
409 72 144
4 94 116
23 2080 182
1399 203471 383
50 96 116
742 90 171
2 4024 238
442 20 144
36 7 112
416811 5 449
533 1 144
4 60 113
37 9 112
9327 17 262
8 269844 443
30 121 119
12 9 20
293 73 128
71 2376 183
826 534371 470
4 5 6
73 126 119
1 40 112
160 234 128
98 85 119
7 7 17
1 999999 525
95789 69 351
649977 23 509
59 1433 182
688 5882 238
2 98000 351
4687 6 238
96 44 116
89 927 179
553110 23 470
1 92008 351
1661 75 182
37612 4331 324
92 2312 183
595 21 144
108 82 119
9 382 144
43 6006 238
512 569 137
460 413 134
9327 57 262
942 849 179
8 89 116
589 6918 262
97 8160 262
497 98 144
924594 16 525
62867 7017 340
496 74 144
54971 66 340
3590 115 217
40 22 112
889 94 179
26 154 122
999999 1 525
335 38 144
3 260 128
64802 99000 351
73 1117 179
561 32 144
165 18922 279
501 355 142
63 125 119
34491 110 311
99 788 171
117 714 171
5271 6786 262
9880 68 262
470 471 129
9700 4534 262
13 767 171
61 72 108
852 57 171
656 12 145
9 5 20
98 37 119
84470 27 351
95 7600 262
82 74 111
452 58 144
13 2649 209
12700 557 268
64 4326 238
4720 1 238
110 865 171
5730 28 238
367 5280 238
2 673 145
514217 4 470
834 795 135
6820 31 262
3778 269 238
265 6959 262
63706 174 340
27 3 112
2 28978 308
9914 99 262
3 9 20
40 8 112
14 8740 262
22 727 171
99 60 119
64340 4 340
40 966 179
91412 57 351
68 791 171
78 135 122
52410 85 324
80 10 116
1 365816 443
308191 387717 441
63 495179 449
120 85 119
856409 15 525
345 7976 262
20 519 144
7803 756 262
12 909881 525
130 92551 351
126 8123 262
603 9242 262
80935 630 351
878 1653 182
59 444 144
233 121 128
510 428 142
99 26 119
805 35833 324
600 58 144
683 25 145
1 21 21
9 30 112
6 5 9
11 71 113
274 129 128
61 61 20
643 47 144
949 520 179
2 48 112
9622 222 262
